neuron_australia,neuron_canada,neuron_gb,neuron_korea,neuron_newzealand
active_scooter_location,active_scooter_location,active_scooter_location,active_scooter_location,active_scooter_location
alarm_status_record,activity,activity,activity,alarm_status_record
app_config,alarm_status_record,alarm_status_record,alarm_status_record,app_config
app_version,app_config,app_config,app_config,attractions_feedback
deposit,app_version,app_version,app_version,blacklist
incident_log,attractions_feedback,attractions_feedback,attractions_feedback,campaign
incident_log_image,battery_info_record,battery_info_record,battery_info_record,deposit
lock_response,battery_swap_history,battery_swap_history,battery_swap_history,dft_quiz_result
mechanic_report_image,blacklist,campaign,blacklist,gps_region
mqtt_btu,campaign,command_log,campaign,ibeacon
mqtt_dbu,command_log,command_response,command_log,incident_log
mqtt_hlu,command_response,deposit,command_response,incident_log_image
mqtt_iot,deposit,gps_brake,deposit,lock_response
mqtt_lte,dft_quiz_result,gps_region,dft_quiz_result,mechanic_report_image
mqtt_mpu,gps_brake,ibeacon,gps_brake,mqtt_btu
mqtt_position,gps_region,incident_log,gps_region,mqtt_dbu
mqtt_scu,ibeacon,incident_log_image,gps_self_check,mqtt_hlu
neuron_sync_queue,incident_log,location_record,ibeacon,mqtt_iot
qrtz_blob_triggers,incident_log_image,lock_response,incident_log,mqtt_lte
qrtz_calendars,incident_mechanic_report,mechanic_report_image,incident_log_image,mqtt_mpu
qrtz_paused_trigger_grps,incident_report,mqtt_btu,incident_mechanic_report,mqtt_position
qrtz_simprop_triggers,incident_report_history,mqtt_dbu,incident_report,mqtt_scu
rtk_station,incident_report_image,mqtt_hlu,incident_report_history,neuron_sync_queue
sagemaker_training_record,incident_report_snapshot,mqtt_iot,incident_report_image,okai_battery_sn
scooter_cmd_exec,incident_report_timeline,mqtt_lte,incident_report_snapshot,organization_secret_key
status,location_record,mqtt_mpu,incident_report_timeline,qrtz_blob_triggers
top_up_card,lock_response,mqtt_position,location_record,qrtz_calendars
trip_sidewalk,mechanic_report_image,mqtt_scu,lock_response,qrtz_paused_trigger_grps
user_concession_evidence,mqtt_btu,n3_status,mechanic_report_image,qrtz_simprop_triggers
user_concession_evidence_image,mqtt_dbu,okai_battery_sn,mqtt_btu,rtk_station
user_concession_evidence_request,mqtt_hlu,organization_secret_key,mqtt_dbu,sagemaker_training_record
user_identification,mqtt_iot,qrtz_blob_triggers,mqtt_hlu,scooter_cmd_exec
user_identification_file,mqtt_lte,qrtz_calendars,mqtt_iot,shop
user_license_scan_record,mqtt_mpu,qrtz_paused_trigger_grps,mqtt_lte,shop_offer
user_mpu,mqtt_position,qrtz_simprop_triggers,mqtt_mpu,shop_offer_record
user_status_record,mqtt_scu,rtk_station,mqtt_position,station_location_request
,n3_status,sagemaker_training_record,mqtt_scu,station_optimal
,neuron_sync_queue,scooter_cmd_exec,n3_status,status
,okai_battery_sn,scooter_issue_extend_info,neuron_sync_queue,top_up_card
,organization_secret_key,shop,notification_config,trip_parking_photo
,qrtz_blob_triggers,shop_offer,organization_secret_key,trip_section
,qrtz_calendars,shop_offer_record,ota_status_record,trip_sidewalk
,qrtz_paused_trigger_grps,station_location_request,ota_task,user_concession_evidence
,qrtz_simprop_triggers,station_optimal,qrtz_blob_triggers,user_concession_evidence_image
,sagemaker_training_record,status,qrtz_calendars,user_concession_evidence_request
,scooter_cmd_exec,top_up_card,qrtz_fired_triggers,user_identification
,scooter_speed_record,trip_deposit,qrtz_paused_trigger_grps,user_identification_file
,shop,trip_parking_photo,qrtz_simprop_triggers,user_license_scan_record
,shop_offer,trip_section,rtk_station,user_mpu
,shop_offer_record,trip_sidewalk,sagemaker_training_record,user_notification
,station_location_request,user_concession_evidence,scooter_cmd_exec,user_status_record
,station_optimal,user_concession_evidence_image,scooter_issue_extend_info,
,status,user_concession_evidence_request,scooter_missing_record,
,top_up_card,user_gps_tracing,scooter_speed_record,
,trip_event_record,user_identification,shop,
,trip_section,user_identification_file,shop_offer,
,trip_sidewalk,user_mpu,shop_offer_record,
,user_concession_evidence,user_notification,station_location_request,
,user_concession_evidence_image,user_status_record,station_optimal,
,user_concession_evidence_request,,status,
,user_gps_tracing,,top_up_card,
,user_identification,,trip_deposit,
,user_identification_file,,trip_event_record,
,user_license,,trip_parking_photo,
,user_license_scan_record,,trip_report,
,user_mpu,,trip_section,
,user_notification,,trip_sidewalk,
,user_status_record,,user_concession_evidence,
,,,user_concession_evidence_image,
,,,user_concession_evidence_request,
,,,user_gps_tracing,
,,,user_identification,
,,,user_identification_file,
,,,user_license_scan_record,
,,,user_mpu,
,,,user_notification,
,,,user_promo_coupon,
,,,user_status_record,